…
## Installation

You can install the development version from GitHub with:

``` r
# install.packages("devtools")
devtools::install_github("MikeJohnPage/mortyr")
```

## Usage

``` r

mortyr::get_characters()
#> # A tibble: 493 x 14
#>      id name  status species type  gender image episode url   created
#>   <int> <chr> <chr>  <chr>   <chr> <chr>  <chr> <list>  <chr> <chr>  
#> 1     1 Rick… Alive  Human   ""    Male   http… <chr [… http… 2017-1…
#> 2     2 Mort… Alive  Human   ""    Male   http… <chr [… http… 2017-1…
#> 3     3 Summ… Alive  Human   ""    Female http… <chr [… http… 2017-1…
#> 4     4 Beth… Alive  Human   ""    Female http… <chr [… http… 2017-1…
#> 5     5 Jerr… Alive  Human   ""    Male   http… <chr [… http… 2017-1…
#> # … with 488 more rows, and 4 more variables
```
…
