…
library(mortyr)

get_characters()
#> # A tibble: 493 x 14
#>      id name  status species type  gender image episode url   created
#>   <int> <chr> <chr>  <chr>   <chr> <chr>  <chr> <list>  <chr> <chr>  
#> 1     1 Rick Alive  Human   ""    Male   http <chr [ http 2017-1
#> 2     2 Mort Alive  Human   ""    Male   http <chr [ http 2017-1
#> 3     3 Summ Alive  Human   ""    Female http <chr [ http 2017-1
#> 4     4 Beth Alive  Human   ""    Female http <chr [ http 2017-1
#> 5     5 Jerr Alive  Human   ""    Male   http <chr [ http 2017-1
#> #  with 488 more rows, and 4 more variables

get_locations()
#> # A tibble: 76 x 7
#>      id name      type     dimension  residents url             created    
#>   <int> <chr>     <chr>    <chr>      <list>    <chr>           <chr>      
#> 1     1 Earth (C Planet   Dimension <chr [27 https://rickan 2017-11-10
#> 2     2 Abadango  Cluster  unknown    <chr [1]> https://rickan 2017-11-10
#> 3     3 Citadel  Space s unknown    <chr [91 https://rickan 2017-11-10
#> 4     4 Worldend Planet   unknown    <chr [9]> https://rickan 2017-11-10
#> 5     5 Anatomy  Microve Dimension <chr [11 https://rickan 2017-11-10
#> #  with 71 more rows

get_episodes()
#> # A tibble: 31 x 7
#>      id name       air_date   episode characters url            created    
#>   <int> <chr>      <chr>      <chr>   <list>     <chr>          <chr>      
#> 1     1 Pilot      December  S01E01  <chr [19]> https://ricka 2017-11-10
#> 2     2 Lawnmower December  S01E02  <chr [19]> https://ricka 2017-11-10
#> 3     3 Anatomy P December  S01E03  <chr [24]> https://ricka 2017-11-10
#> 4     4 M. Night  January 1 S01E04  <chr [13]> https://ricka 2017-11-10
#> 5     5 Meeseeks  January 2 S01E05  <chr [20]> https://ricka 2017-11-10
#> #  with 26 more rows
…
